<?xml version="1.0" encoding="UTF-8" standalone="no"?>
<svg
   height="16"
   viewBox="0 0 16 16"
   width="16"
   version="1.1"
   id="svg4"
   xmlns="http://www.w3.org/2000/svg"
   xmlns:svg="http://www.w3.org/2000/svg">
  <defs
     id="defs8" />
  <path
     d="m8.00008 1049.4022a1 1 0 0 0 .69336-.291 1 1 0 0 0 0-1.4141l-2.293-2.293h4.5859c.55228 0 1-.4477 1-1s-.44772-1-1-1h-4.5859l2.293-2.293a1 1 0 0 0 0-1.4141 1 1 0 0 0 -1.4141 0l-4 4a1.0001 1.0001 0 0 0 0 1.4141l4 4a1 1 0 0 0 .7207.291z"
     fill="#e0e0e0"
     transform="matrix(0 1 -1 0 1052.4021 -.00004)"
     id="path2" />
  <circle
     style="fill:#e0e0e0;fill-opacity:1;stroke-width:0.975701;paint-order:stroke fill markers"
     id="path1625"
     cx="8.0208416"
     cy="7.694097"
     r="5.2750864" />
</svg>
