[gd_resource type="StandardMaterial3D" load_steps=4 format=3 uid="uid://rm542wgpkgrh"]

[ext_resource type="Texture2D" uid="uid://cc25fo1bx6opf" path="res://Materials/Floor/T_SciFiFabric_s.tga" id="1_c8yug"]
[ext_resource type="Texture2D" uid="uid://dqdbeh5f6ryk8" path="res://Materials/Floor/T_SciFiFabric_d.tga" id="2_6ogqu"]
[ext_resource type="Texture2D" uid="uid://pwouqavr1js4" path="res://Materials/Floor/T_SciFiFabric_n.tga" id="3_k3o8m"]

[resource]
albedo_texture = ExtResource("1_c8yug")
metallic = 0.41
metallic_specular = 0.0
metallic_texture = ExtResource("2_6ogqu")
metallic_texture_channel = 3
roughness = 0.5
roughness_texture = ExtResource("2_6ogqu")
roughness_texture_channel = 3
normal_enabled = true
normal_scale = 1.42
normal_texture = ExtResource("3_k3o8m")
uv1_scale = Vector3(4.1, 4.1, 4.1)
